{
  "items": [
    {
      "title": "Mon Zob",
      "category": "Dumb Shit",
      "creator": "Pierre LEJEUNE",
      "start": "11/02/2019 14:20",
      "banner": "https://www.scoopturn.com/media/banner/2019/05/fut-19-les-swap-deals-de-mai-1556870856.jpg",
      "images": [
        {
          "alt": "PSG",
          "src": "http://matchs.p-lejeune.com/media/logo/2019/01/paris-saint-germain-1548444592.png"
        },
        {
          "alt": "OM",
          "src": "http://matchs.p-lejeune.com/media/logo/2019/01/olympique-de-marseille-1548444583.png"
        },
        {
          "alt": "Bastia",
          "src": "http://matchs.p-lejeune.com/media/logo/2019/01/sc-bastia-1548444610.png"
        }
      ],
      "firstStat": {
        "value": 12,
        "description": "Hours"
      },
      "secondStat": {
        "value": 5,
        "description": "Streamers"
      },
      "progress": 10
    },
    {
      "title": "Mon Zob 2",
      "category": "Dumb Shit",
      "creator": "Pierre LEJEUNE",
      "start": "11/02/2019 14:20",
      "banner": "https://www.scoopturn.com/media/banner/2019/05/fut-19-marco-van-basten-et-nani-en-version-flashback-dans-les-dfis-de-cration-dquipes-1556810376-large.jpg",
      "images": [
        {
          "alt": "EA",
          "src": "http://matchs.p-lejeune.com/media/jeu/30-fifa/logo-1523037989.jpg"
        },
        {
          "alt": "OM",
          "src": "http://matchs.p-lejeune.com/media/logo/2019/01/olympique-de-marseille-1548444583.png"
        },
        {
          "alt": "Bastia",
          "src": "http://matchs.p-lejeune.com/media/logo/2019/01/sc-bastia-1548444610.png"
        }
      ],
      "firstStat": {
        "value": 12,
        "description": "Hours"
      },
      "secondStat": {
        "value": 5,
        "description": "Streamers"
      },
      "progress": 10
    },
    {
      "title": "Mon Zob 3",
      "category": "Dumb Shit",
      "creator": "Pierre LEJEUNE",
      "start": "11/02/2019 14:20",
      "banner": "https://www.scoopturn.com/media/banner/2019/05/fut-19-leon-bailey-en-version-uel-moments-1556807558.jpeg",
      "images": [
        {
          "alt": "EA",
          "src": "http://matchs.p-lejeune.com/media/jeu/30-fifa/logo-1523037989.jpg"
        },
        {
          "alt": "OM",
          "src": "http://matchs.p-lejeune.com/media/logo/2019/01/olympique-de-marseille-1548444583.png"
        },
        {
          "alt": "Bastia",
          "src": "http://matchs.p-lejeune.com/media/logo/2019/01/sc-bastia-1548444610.png"
        }
      ],
      "firstStat": {
        "value": 12,
        "description": "Hours"
      },
      "secondStat": {
        "value": 5,
        "description": "Streamers"
      },
      "progress": 10
    },
    {
      "title": "Mon Zob",
      "category": "Dumb Shit",
      "creator": "Pierre LEJEUNE",
      "start": "11/02/2019 14:20",
      "banner": "https://www.scoopturn.com/media/banner/2019/05/fut-19-les-swap-deals-de-mai-1556870856.jpg",
      "images": [
        {
          "alt": "PSG",
          "src": "http://matchs.p-lejeune.com/media/logo/2019/01/paris-saint-germain-1548444592.png"
        },
        {
          "alt": "OM",
          "src": "http://matchs.p-lejeune.com/media/logo/2019/01/olympique-de-marseille-1548444583.png"
        },
        {
          "alt": "Bastia",
          "src": "http://matchs.p-lejeune.com/media/logo/2019/01/sc-bastia-1548444610.png"
        }
      ],
      "firstStat": {
        "value": 12,
        "description": "Hours"
      },
      "secondStat": {
        "value": 5,
        "description": "Streamers"
      },
      "progress": 10
    },
    {
      "title": "Mon Zob 2",
      "category": "Dumb Shit",
      "creator": "Pierre LEJEUNE",
      "start": "11/02/2019 14:20",
      "banner": "https://www.scoopturn.com/media/banner/2019/05/fut-19-marco-van-basten-et-nani-en-version-flashback-dans-les-dfis-de-cration-dquipes-1556810376-large.jpg",
      "images": [
        {
          "alt": "EA",
          "src": "http://matchs.p-lejeune.com/media/jeu/30-fifa/logo-1523037989.jpg"
        },
        {
          "alt": "OM",
          "src": "http://matchs.p-lejeune.com/media/logo/2019/01/olympique-de-marseille-1548444583.png"
        },
        {
          "alt": "Bastia",
          "src": "http://matchs.p-lejeune.com/media/logo/2019/01/sc-bastia-1548444610.png"
        }
      ],
      "firstStat": {
        "value": 12,
        "description": "Hours"
      },
      "secondStat": {
        "value": 5,
        "description": "Streamers"
      },
      "progress": 10
    },
    {
      "title": "Mon Zob 3",
      "category": "Dumb Shit",
      "creator": "Pierre LEJEUNE",
      "start": "11/02/2019 14:20",
      "banner": "https://www.scoopturn.com/media/banner/2019/05/fut-19-leon-bailey-en-version-uel-moments-1556807558.jpeg",
      "images": [
        {
          "alt": "EA",
          "src": "http://matchs.p-lejeune.com/media/jeu/30-fifa/logo-1523037989.jpg"
        },
        {
          "alt": "OM",
          "src": "http://matchs.p-lejeune.com/media/logo/2019/01/olympique-de-marseille-1548444583.png"
        },
        {
          "alt": "Bastia",
          "src": "http://matchs.p-lejeune.com/media/logo/2019/01/sc-bastia-1548444610.png"
        }
      ],
      "firstStat": {
        "value": 12,
        "description": "Hours"
      },
      "secondStat": {
        "value": 5,
        "description": "Streamers"
      },
      "progress": 10
    }
  ]
}
