{
  "config" : {
    "fields" : {
      "id" : {
        "type": "number",
        "class": "text-center"
      },
      "texte" : {
        "type": "string"
      },
      "image" : {
        "type": "image",
        "class": "image"
      },
      "date" : {
        "type": "date",
        "class": "text-right"
      }
    }
  },
  "items": [
    {
      "id": "1",
      "texte": "This is some texte",
      "image": "https://www.scoopturn.com/media/banner/2019/05/fut-19-les-swap-deals-de-mai-1556870856.jpg",
      "date": "18/08/1991"
    },
    {
      "id": "2",
      "texte": "This is some texte",
      "image": "https://www.scoopturn.com/media/banner/2019/05/fut-19-les-swap-deals-de-mai-1556870856.jpg",
      "date": "18/08/1991"
    },
    {
      "id": "3",
      "texte": "This is some texte",
      "image": "https://www.scoopturn.com/media/banner/2019/05/fut-19-les-swap-deals-de-mai-1556870856.jpg",
      "date": "18/08/1991"
    },
    {
      "id": "4",
      "texte": "This is some texte",
      "image": "https://www.scoopturn.com/media/banner/2019/05/fut-19-les-swap-deals-de-mai-1556870856.jpg",
      "date": "18/08/1991"
    },
    {
      "id": "5",
      "texte": "This is some texte",
      "image": "https://www.scoopturn.com/media/banner/2019/05/fut-19-les-swap-deals-de-mai-1556870856.jpg",
      "date": "18/08/1991"
    },
    {
      "id": "6",
      "texte": "This is some texte",
      "image": "https://www.scoopturn.com/media/banner/2019/05/fut-19-les-swap-deals-de-mai-1556870856.jpg",
      "date": "18/08/1991"
    },
    {
      "id": "7",
      "texte": "This is some texte",
      "image": "https://www.scoopturn.com/media/banner/2019/05/fut-19-les-swap-deals-de-mai-1556870856.jpg",
      "date": "18/08/1991"
    },
    {
      "id": "8",
      "texte": "This is some texte",
      "image": "https://www.scoopturn.com/media/banner/2019/05/fut-19-les-swap-deals-de-mai-1556870856.jpg",
      "date": "18/08/1991"
    },
    {
      "id": "9",
      "texte": "This is some texte",
      "image": "https://www.scoopturn.com/media/banner/2019/05/fut-19-les-swap-deals-de-mai-1556870856.jpg",
      "date": "18/08/1991"
    },
    {
      "id": "10",
      "texte": "This is some texte",
      "image": "https://www.scoopturn.com/media/banner/2019/05/fut-19-les-swap-deals-de-mai-1556870856.jpg",
      "date": "18/08/1991"
    }
  ]
}
