{
  "items": [
    {
      "icon": "far fa-calendar",
      "date": "18/08/1991 à 15:15",
      "title": "Mon Zob",
      "user": "Pierre LEJEUNE",
      "tooltip": "This is some crazy bullshit"
    },
    {
      "icon": "far fa-calendar",
      "date": "18/08/1991 à 15:15",
      "title": "Mon Zob",
      "user": "Pierre LEJEUNE",
      "tooltip": "This is some crazy bullshit",
      "class": "red"
    },
    {
      "icon": "far fa-calendar",
      "date": "18/08/1991 à 15:15",
      "title": "Mon Zob",
      "user": "Pierre LEJEUNE",
      "tooltip": "This is some crazy bullshit",
      "class": "yellow"
    },
    {
      "icon": "far fa-calendar",
      "date": "18/08/1991 à 15:15",
      "title": "Mon Zob",
      "user": "Pierre LEJEUNE",
      "tooltip": "This is some crazy bullshit",
      "class": "green"
    },
    {
      "icon": "far fa-calendar",
      "date": "18/08/1991 à 15:15",
      "title": "Mon Zob",
      "user": "Pierre LEJEUNE",
      "tooltip": "This is some crazy bullshit",
      "class": "blue"
    },
    {
      "icon": "far fa-calendar",
      "date": "18/08/1991 à 15:15",
      "title": "Mon Zob",
      "user": "Pierre LEJEUNE",
      "tooltip": "This is some crazy bullshit",
      "class": "purple"
    },
    {
      "icon": "far fa-calendar",
      "date": "18/08/1991 à 15:15",
      "title": "Mon Zob",
      "user": "Pierre LEJEUNE",
      "tooltip": "This is some crazy bullshit",
      "class": "pink"
    },
    {
      "icon": "far fa-calendar",
      "date": "18/08/1991 à 15:15",
      "title": "Mon Zob",
      "user": "Pierre LEJEUNE",
      "tooltip": "This is some crazy bullshit",
      "class": "orange"
    },
    {
      "icon": "far fa-calendar",
      "date": "18/08/1991 à 15:15",
      "title": "Mon Zob",
      "user": "Pierre LEJEUNE",
      "tooltip": "This is some crazy bullshit"
    }
  ]
}
